0.2 0.00397664
0.6 0.003122
1 0.00311234
1.4 0.00314463
1.8 0.00319098
2.2 0.00324601
2.6 0.0033041
3 0.00335828
3.4 0.00342688
3.8 0.00349435
4.2 0.00356591
4.6 0.00363437
5 0.00371769
5.4 0.00379187
5.8 0.00388151
6.2 0.00397578
6.6 0.00406751
7 0.00416129
7.4 0.00426805
7.8 0.00438432
8.2 0.00449957
8.6 0.00461965
9 0.00475958
9.4 0.00489385
9.8 0.00505057
10.2 0.00521153
10.6 0.00537555
11 0.00557289
11.4 0.00577349
11.8 0.00598975
12.2 0.00623441
12.6 0.00647547
13 0.00678376
13.4 0.00711914
13.8 0.00748837
14.2 0.0078943
14.6 0.00836622
15 0.00888669
15.4 0.00953428
15.8 0.0102953
16.2 0.0111704
16.6 0.0123024
17 0.0137393
17.4 0.0156985
17.8 0.0185019
18.2 0.022912
18.6 0.0317313
19 0.0586435
19.4 0.221371
19.8 1
